--------------------------------------------------------------------------
MPI_ABORT was invoked on rank 0 in communicator MPI_COMM_WORLD
with errorcode 16.

NOTE: invoking MPI_ABORT causes Open MPI to kill all MPI processes.
You may or may not see output from other processes, depending on
exactly when Open MPI kills them.
--------------------------------------------------------------------------
[instance-102:10050] PMIX ERROR: UNREACHABLE in file ../../../src/server/pmix_server.c at line 2079
[instance-102:10050] PMIX ERROR: UNREACHABLE in file ../../../src/server/pmix_server.c at line 2079
[instance-107:10049] PMIX ERROR: UNREACHABLE in file ../../../src/server/pmix_server.c at line 2079
[instance-101:10061] PMIX ERROR: UNREACHABLE in file ../../../src/server/pmix_server.c at line 2079
[instance-101:10061] PMIX ERROR: UNREACHABLE in file ../../../src/server/pmix_server.c at line 2079
[warn] Epoll MOD(1) on fd 21 failed. Old events were 6; read change was 0 (none); write change was 2 (del); close change was 0 (none): Bad file descriptor
[instance-103:10050] PMIX ERROR: UNREACHABLE in file ../../../src/server/pmix_server.c at line 2079
[instance-103:10050] PMIX ERROR: UNREACHABLE in file ../../../src/server/pmix_server.c at line 2079
[instance-105:10045] PMIX ERROR: UNREACHABLE in file ../../../src/server/pmix_server.c at line 2079
[warn] Epoll MOD(1) on fd 21 failed. Old events were 6; read change was 0 (none); write change was 2 (del); close change was 0 (none): Bad file descriptor
[warn] Epoll MOD(1) on fd 21 failed. Old events were 6; read change was 0 (none); write change was 2 (del); close change was 0 (none): Bad file descriptor
[instance-100:11649] 15 more processes have sent help message help-mpi-api.txt / mpi-abort
[instance-100:11649] Set MCA parameter "orte_base_help_aggregate" to 0 to see all help / error messages
