--------------------------------------------------------------------------
Primary job  terminated normally, but 1 process returned
a non-zero exit code. Per user-direction, the job has been aborted.
--------------------------------------------------------------------------
--------------------------------------------------------------------------
WARNING: Open MPI failed to TCP connect to a peer MPI process.  This
should not happen.

Your Open MPI job may now fail.

  Local host: instance-101
  PID:        10106
  Message:    connect() to 10.128.15.212:1024 failed
  Error:      Operation now in progress (115)
--------------------------------------------------------------------------
[instance-100:11693] PMIX ERROR: UNREACHABLE in file ../../../src/server/pmix_server.c at line 2079
[instance-106:10081] PMIX ERROR: UNREACHABLE in file ../../../src/server/pmix_server.c at line 2079
[instance-102:10089] PMIX ERROR: UNREACHABLE in file ../../../src/server/pmix_server.c at line 2079
[instance-101:10101] PMIX ERROR: UNREACHABLE in file ../../../src/server/pmix_server.c at line 2079
[instance-104:10097] PMIX ERROR: UNREACHABLE in file ../../../src/server/pmix_server.c at line 2079
[instance-107:10089] PMIX ERROR: UNREACHABLE in file ../../../src/server/pmix_server.c at line 2079
[instance-105:10085] PMIX ERROR: UNREACHABLE in file ../../../src/server/pmix_server.c at line 2079
--------------------------------------------------------------------------
mpirun noticed that process rank 2 with PID 10105 on node 10.128.15.207 exited on signal 9 (Killed).
--------------------------------------------------------------------------
[instance-100:11693] 6 more processes have sent help message help-mpi-btl-tcp.txt / client connect fail
[instance-100:11693] Set MCA parameter "orte_base_help_aggregate" to 0 to see all help / error messages
