

 NAS Parallel Benchmarks 3.4 -- BT Benchmark

 No input file inputbt.data. Using compiled defaults
 Size: 1020x1020x1020  (class E)
 Iterations:  250    dt:   0.0000040
 Total number of processes:    64

4 total processes killed (some possibly by mpirun during cleanup)
